…
<script src="{{< blogdown/postref >}}index_files/header-attrs/header-attrs.js">

Historie vanaf 1999

Return historie aandelen, obligaties en verschillende mixen, sinds 2015 (te weinig uiteraard, het gaat om het idee)

## # A tibble: 278 × 6
##    date       MSDEWIN BM8020 BM5050 BM2080 BENEGA
##    <date>       <dbl>  <dbl>  <dbl>  <dbl>  <dbl>
##  1 1998-12-31    NA     NA     NA     NA     NA  
##  2 1999-01-31     5.6    4.8    3.6    2.4    1.5
##  3 1999-02-28     0.7    0.3   -0.4   -1     -1.5
##  4 1999-03-31     5.9    4.8    3.3    1.7    0.6
##  5 1999-04-30     6.1    5.1    3.6    2.1    1.1
##  6 1999-05-31    -2.3   -2     -1.5   -1.1   -0.8
##  7 1999-06-30     5.8    4.3    2     -0.2   -1.8
##  8 1999-07-31    -3.9   -3.4   -2.5   -1.6   -1  
##  9 1999-08-31     1.1    0.9    0.5    0.1   -0.2
## 10 1999-09-30    -1.8   -1.5   -1.1   -0.7   -0.4
## # … with 268 more rows
…
